[
  {
    "model": "shop.category",
    "pk": 1,
    "fields": {
      "name": "Rolex",
      "slug": "rolex",
      "gender": ""
    }
  },
  {
    "model": "shop.category",
    "pk": 2,
    "fields": {
      "name": "Omega",
      "slug": "omega",
      "gender": ""
    }
  },
  {
    "model": "shop.category",
    "pk": 3,
    "fields": {
      "name": "Casio",
      "slug": "casio",
      "gender": ""
    }
  },
  {
    "model": "shop.category",
    "pk": 4,
    "fields": {
      "name": "Tissot",
      "slug": "tissot",
      "gender": ""
    }
  },
  {
    "model": "shop.category",
    "pk": 5,
    "fields": {
      "name": "Rado",
      "slug": "rado",
      "gender": ""
    }
  },
  {
    "model": "shop.category",
    "pk": 6,
    "fields": {
      "name": "Ulysse Nardin",
      "slug": "ulysse-nardin",
      "gender": ""
    }
  },
  {
    "model": "shop.category",
    "pk": 7,
    "fields": {
      "name": "Hublot",
      "slug": "hublot",
      "gender": "man"
    }
  },
  {
    "model": "shop.category",
    "pk": 8,
    "fields": {
      "name": "Longines",
      "slug": "longines",
      "gender": "man"
    }
  },
  {
    "model": "shop.item",
    "pk": 1,
    "fields": {
      "title": "Oyster Perpetual",
      "slug": "Oyster-Perpetual",
      "description": "\u041f\u0440\u0435\u0434\u0441\u0442\u0430\u0432\u043b\u0435\u043d\u043d\u044b\u0435 \u0432 1963 \u0433\u043e\u0434\u0443 \u0447\u0430\u0441\u044b Cosmograph Daytona \u0431\u044b\u043b\u0438 \u0441\u043e\u0437\u0434\u0430\u043d\u044b \u0434\u043b\u044f \u043f\u0440\u043e\u0444\u0435\u0441\u0441\u0438\u043e\u043d\u0430\u043b\u044c\u043d\u044b\u0445 \u0430\u0432\u0442\u043e\u0433\u043e\u043d\u0449\u0438\u043a\u043e\u0432. \u0411\u043b\u0430\u0433\u043e\u0434\u0430\u0440\u044f \u0431\u0435\u0437\u0435\u043b\u044e \u0441 \u0442\u0430\u0445\u0438\u043c\u0435\u0442\u0440\u0438\u0447\u0435\u0441\u043a\u043e\u0439 \u0448\u043a\u0430\u043b\u043e\u0439 \u044d\u0442\u043e\u0442 \u043d\u0430\u0434\u0435\u0436\u043d\u044b\u0439 \u0445\u0440\u043e\u043d\u043e\u0433\u0440\u0430\u0444 \u0438\u0434\u0435\u0430\u043b\u044c\u043d\u043e \u043f\u043e\u0434\u0445\u043e\u0434\u0438\u0442 \u0434\u043b\u044f \u0438\u0437\u043c\u0435\u0440\u0435\u043d\u0438\u044f \u0441\u043a\u043e\u0440\u043e\u0441\u0442\u0438 \u0432 \u043f\u0440\u0435\u0434\u0435\u043b\u0430\u0445 \u0434\u043e 400 \u0435\u0434\u0438\u043d\u0438\u0446 \u0432 \u0447\u0430\u0441, \u0431\u0443\u0434\u044c \u0442\u043e \u043a\u0438\u043b\u043e\u043c\u0435\u0442\u0440\u044b, \u043c\u0438\u043b\u0438 \u0438\u043b\u0438 \u0438\u043d\u044b\u0435 \u043c\u0435\u0440\u044b \u0434\u043b\u0438\u043d\u044b. \u041d\u0430\u0437\u0432\u0430\u043d\u0438\u0435 \u0438 \u0444\u0443\u043d\u043a\u0446\u0438\u0438 \u044d\u0442\u0438\u0445 \u043b\u0435\u0433\u0435\u043d\u0434\u0430\u0440\u043d\u044b\u0445 \u0447\u0430\u0441\u043e\u0432 \u043e\u0434\u043d\u043e\u0437\u043d\u0430\u0447\u043d\u043e \u0443\u043a\u0430\u0437\u044b\u0432\u0430\u044e\u0442 \u043d\u0430 \u0438\u0445 \u043f\u0440\u0438\u043d\u0430\u0434\u043b\u0435\u0436\u043d\u043e\u0441\u0442\u044c \u043a \u043c\u0438\u0440\u0443 \u0430\u0432\u0442\u043e\u043c\u043e\u0442\u043e\u0441\u043f\u043e\u0440\u0442\u0430.",
      "price": "30000.00",
      "category": 7,
      "image": "items/abt-2.jpg"
    }
  },
  {
    "model": "shop.slider",
    "pk": 1,
    "fields": {
      "image": "slider/bnr-1.jpg",
      "title": "Slide 1",
      "description": "desc"
    }
  },
  {
    "model": "shop.slider",
    "pk": 2,
    "fields": {
      "image": "slider/bnr-2.jpg",
      "title": "Slide 2",
      "description": "desc"
    }
  },
  {
    "model": "shop.slider",
    "pk": 3,
    "fields": {
      "image": "slider/bnr-3.jpg",
      "title": "Slide 3",
      "description": "des"
    }
  },
  {
    "model": "shop.geoposition",
    "pk": 1,
    "fields": {
      "name": "\u0414\u043e\u043c \u0411\u0435\u043a\u0442\u0443\u0440\u0430",
      "position": "40.4949002,72.8281604"
    }
  }
]